﻿{
  "Group": "Product Extensions",
  "FriendlyName": "Product Extension Admin",
  "SystemName": "VIU.Extensions.Product.Admin",
  "Version": "1.0",
  "SupportedVersions": [ "4.20" ],
  "Author": "Rolf Isler, VIU AG",
  "DisplayOrder": 1,
  "FileName": "VIU.Plugin.Extensions.Product.Admin.dll",
  "Description": "This plugin "
}